<svg width="24" height="24" viewBox="0 0 24 24" fill="none" xmlns="http://www.w3.org/2000/svg">
<path d="M11.4424 18.29C15.4072 18.29 18.6611 15.0293 18.6611 11.0645C18.6611 7.10645 15.4004 3.8457 11.4424 3.8457C7.47754 3.8457 4.22363 7.10645 4.22363 11.0645C4.22363 15.0293 7.48438 18.29 11.4424 18.29ZM8.7627 14.4893C8.20898 14.7285 7.78516 14.3047 8.02441 13.751L9.74023 9.91602C9.86328 9.64258 10.041 9.47168 10.3008 9.3623L14.1152 7.64648C14.6963 7.39355 15.1064 7.81738 14.8672 8.38477L13.1514 12.2129C13.0352 12.4727 12.8574 12.6504 12.5908 12.7666L8.7627 14.4893ZM11.4492 12.0283C11.9756 12.0283 12.3994 11.6045 12.3994 11.0781C12.3994 10.5518 11.9756 10.1211 11.4492 10.1211C10.9229 10.1211 10.4922 10.5518 10.4922 11.0781C10.4922 11.6045 10.9229 12.0283 11.4492 12.0283Z" fill="white"/>
</svg>
