<svg width="24" height="24" viewBox="0 0 24 24" fill="none" xmlns="http://www.w3.org/2000/svg">
<path d="M11.7793 17.9551C15.4023 17.9551 18.4033 14.9541 18.4033 11.3311C18.4033 7.70801 15.3955 4.70703 11.7725 4.70703C8.15625 4.70703 5.15527 7.70801 5.15527 11.3311C5.15527 14.9541 8.15625 17.9551 11.7793 17.9551ZM10.002 10.0596C9.98145 9.81348 9.86523 9.58789 9.69434 9.42383C10.2617 8.00195 11.1572 6.70996 12.3193 5.66406C12.4014 5.6709 12.4902 5.68457 12.5723 5.69824C11.7451 7.11328 11.2461 8.69922 11.1162 10.3467C10.7402 10.2783 10.3643 10.1826 10.002 10.0596ZM7.03516 8.21387C7.94434 6.83984 9.44141 5.86914 11.1436 5.6709C10.1865 6.68262 9.44141 7.8584 8.93555 9.13672C8.7373 9.14355 8.55957 9.20508 8.40918 9.30762C7.91016 9 7.45215 8.63086 7.03516 8.21387ZM13.7959 8.27539C13.7891 7.55078 13.8848 6.82617 14.0967 6.14258C15.3408 6.70996 16.3594 7.71484 16.9404 8.95215C16.2773 9.45801 15.5322 9.84082 14.7461 10.0938C14.5615 9.86133 14.2744 9.7041 13.96 9.69727C13.8574 9.23926 13.8027 8.76074 13.7959 8.27539ZM12.9824 8.28223C12.9893 8.87695 13.0645 9.45801 13.1943 10.0254C13.085 10.1416 13.0029 10.2783 12.9619 10.4355C12.7979 10.4492 12.6338 10.4561 12.4697 10.4561C12.2852 10.4561 12.1074 10.4492 11.9297 10.4424C12.0391 8.91797 12.4902 7.46191 13.2422 6.16309C13.0645 6.84668 12.9756 7.55078 12.9824 8.28223ZM6.0918 11.3311C6.0918 10.4902 6.27637 9.69043 6.61133 8.96582C7.02832 9.35547 7.47949 9.7041 7.96484 10.0049C7.95801 10.0527 7.95117 10.1074 7.95117 10.1621C7.95117 10.5107 8.12207 10.8184 8.38867 11.0029C8.25879 11.666 8.18359 12.3428 8.18359 13.0332C7.44531 12.6709 6.74805 12.2197 6.09863 11.6729C6.0918 11.5635 6.0918 11.4473 6.0918 11.3311ZM17.4736 11.3311C17.4736 11.8711 17.3916 12.4043 17.248 12.9033C16.8721 13.1016 16.4893 13.2725 16.0996 13.4229C15.4912 12.8623 14.9854 12.2061 14.6025 11.4814C14.7734 11.3311 14.8965 11.126 14.9375 10.8936C15.7578 10.6338 16.5371 10.251 17.248 9.75195C17.3916 10.251 17.4736 10.7842 17.4736 11.3311ZM11.0889 11.1738C11.0889 12.0078 11.1846 12.8281 11.3623 13.6211C11.2598 13.71 11.1641 13.8193 11.1025 13.9424C10.3848 13.833 9.68066 13.6484 8.99707 13.3887C8.97656 12.6367 9.03809 11.8916 9.18164 11.1738C9.40723 11.1328 9.6123 11.0098 9.75586 10.8389C10.1865 10.9824 10.6309 11.0918 11.0889 11.1602V11.1738ZM12.4697 11.2695C12.6748 11.2695 12.873 11.2627 13.0713 11.249C13.2354 11.502 13.502 11.6865 13.8164 11.7207C14.1787 12.4521 14.6572 13.1221 15.2314 13.7031C14.4863 13.9082 13.7275 14.0244 12.9688 14.0518C12.832 13.71 12.5244 13.457 12.1553 13.4092C11.9912 12.7051 11.9092 11.9873 11.9023 11.2559C12.0869 11.2627 12.2783 11.2695 12.4697 11.2695ZM6.30371 12.8691C6.90527 13.293 7.54102 13.6553 8.2041 13.9424C8.23828 14.626 8.34082 15.3096 8.51855 15.9727C7.46582 15.2275 6.66602 14.1338 6.30371 12.8691ZM11.7793 17.0254C11 17.0254 10.248 16.8613 9.56445 16.5605C9.28418 15.8223 9.11328 15.0566 9.04492 14.2705C9.69434 14.4961 10.3574 14.6602 11.0342 14.7559C11.1709 15.1455 11.5332 15.4326 11.9639 15.4531C12.1895 15.9658 12.4492 16.4648 12.75 16.9365C12.4355 16.9912 12.1074 17.0254 11.7793 17.0254ZM12.7295 15.1592C12.8184 15.0771 12.8867 14.9746 12.9414 14.8652C13.9531 14.8311 14.958 14.6602 15.9355 14.3457C16.0791 14.4551 16.2227 14.5645 16.373 14.667C15.6826 15.6104 14.7051 16.3418 13.5771 16.7246C13.249 16.2256 12.9619 15.7061 12.7295 15.1592Z" fill="white" fill-opacity="0.6"/>
</svg>
