[{"employee_id":1,"first_name":"Vickie","last_name":"Spore","email":"vspore0@google.fr","phone_number":"368-196-1449","hire_date":"4/25/2023","termination_date":"6/11/2022","job_title":"Pharmacist","gender":"Female","birthdate":"3/20/1956","address":"80481 Nova Center","city":"Pasaje","zip_code":null,"emergency_contact_name":"Vickie Spore","emergency_contact_phone":"536-933-5588","picture":"http://dummyimage.com/146x100.png/ff4444/ffffff"},
{"employee_id":2,"first_name":"Katy","last_name":"Butteris","email":"kbutteris1@latimes.com","phone_number":"332-534-1545","hire_date":"7/24/2022","termination_date":"4/1/2023","job_title":"Sales Representative","gender":"Female","birthdate":"6/8/1999","address":"5812 Veith Center","city":"Taytayan","zip_code":"6204","emergency_contact_name":"Katy Butteris","emergency_contact_phone":"822-372-6584","picture":"http://dummyimage.com/121x100.png/cc0000/ffffff"},
{"employee_id":3,"first_name":"Robin","last_name":"Arnaldy","email":"rarnaldy2@businessinsider.com","phone_number":"727-867-0617","hire_date":"8/8/2022","termination_date":"3/26/2023","job_title":"Help Desk Operator","gender":"Female","birthdate":"3/13/1997","address":"18 Schiller Way","city":"Nove-Misto","zip_code":null,"emergency_contact_name":"Robin Arnaldy","emergency_contact_phone":"985-462-7143","picture":"http://dummyimage.com/219x100.png/cc0000/ffffff"},
{"employee_id":4,"first_name":"Fabio","last_name":"Elcocks","email":"felcocks3@360.cn","phone_number":"558-932-4641","hire_date":"2/2/2023","termination_date":"6/27/2022","job_title":"Account Coordinator","gender":"Male","birthdate":"11/19/1974","address":"23307 Lien Court","city":"Finspång","zip_code":"612 32","emergency_contact_name":"Fabio Elcocks","emergency_contact_phone":"210-337-6184","picture":"http://dummyimage.com/187x100.png/ff4444/ffffff"},
{"employee_id":5,"first_name":"Dwight","last_name":"Akast","email":"dakast4@elpais.com","phone_number":"685-170-7244","hire_date":"2/11/2023","termination_date":"12/16/2022","job_title":"Teacher","gender":"Male","birthdate":"2/8/1967","address":"3764 Nelson Point","city":"Venado Tuerto","zip_code":"2600","emergency_contact_name":"Dwight Akast","emergency_contact_phone":"776-313-4100","picture":"http://dummyimage.com/204x100.png/dddddd/000000"},
{"employee_id":6,"first_name":"Romona","last_name":"McMeekan","email":"rmcmeekan5@dyndns.org","phone_number":"419-879-6078","hire_date":"1/30/2023","termination_date":"8/15/2022","job_title":"Structural Engineer","gender":"Female","birthdate":"12/28/1989","address":"164 John Wall Drive","city":"Chechen-Aul","zip_code":"366301","emergency_contact_name":"Romona McMeekan","emergency_contact_phone":"280-615-6583","picture":"http://dummyimage.com/232x100.png/dddddd/000000"},
{"employee_id":7,"first_name":"Elmore","last_name":"Antoszewski","email":"eantoszewski6@ezinearticles.com","phone_number":"434-705-2350","hire_date":"1/9/2023","termination_date":"11/15/2022","job_title":"General Manager","gender":"Bigender","birthdate":"1/2/1971","address":"2 Fairview Court","city":"Challhuahuacho","zip_code":null,"emergency_contact_name":"Elmore Antoszewski","emergency_contact_phone":"802-377-0546","picture":"http://dummyimage.com/127x100.png/ff4444/ffffff"},
{"employee_id":8,"first_name":"Iolande","last_name":"Poppleston","email":"ipoppleston7@naver.com","phone_number":"277-162-7243","hire_date":"8/27/2022","termination_date":"5/7/2023","job_title":"Senior Cost Accountant","gender":"Non-binary","birthdate":"8/30/1965","address":"19506 High Crossing Court","city":"Nama","zip_code":"2437","emergency_contact_name":"Iolande Poppleston","emergency_contact_phone":"668-874-4529","picture":"http://dummyimage.com/221x100.png/dddddd/000000"},
{"employee_id":9,"first_name":"Thomasa","last_name":"Clemas","email":"tclemas8@mail.ru","phone_number":"735-331-5334","hire_date":"6/11/2022","termination_date":"4/20/2023","job_title":"Software Consultant","gender":"Female","birthdate":"1/25/1994","address":"71 Summer Ridge Crossing","city":"Giesteira","zip_code":"2495-593","emergency_contact_name":"Thomasa Clemas","emergency_contact_phone":"390-690-8982","picture":"http://dummyimage.com/198x100.png/5fa2dd/ffffff"},
{"employee_id":10,"first_name":"Candy","last_name":"Parfrey","email":"cparfrey9@statcounter.com","phone_number":"512-542-0010","hire_date":"7/30/2022","termination_date":"2/21/2023","job_title":"Research Assistant IV","gender":"Bigender","birthdate":"11/15/1953","address":"091 South Trail","city":"Hrvace","zip_code":"21233","emergency_contact_name":"Candy Parfrey","emergency_contact_phone":"414-582-8610","picture":"http://dummyimage.com/208x100.png/dddddd/000000"},
{"employee_id":11,"first_name":"Donia","last_name":"Bunch","email":"dbuncha@mac.com","phone_number":"165-271-1889","hire_date":"12/9/2022","termination_date":"12/14/2022","job_title":"Cost Accountant","gender":"Female","birthdate":"8/4/1994","address":"5 7th Alley","city":"Końskowola","zip_code":"24-130","emergency_contact_name":"Donia Bunch","emergency_contact_phone":"648-972-9199","picture":"http://dummyimage.com/161x100.png/ff4444/ffffff"},
{"employee_id":12,"first_name":"Hildegaard","last_name":"Shipley","email":"hshipleyb@ted.com","phone_number":"213-400-0294","hire_date":"9/1/2022","termination_date":"3/2/2023","job_title":"Help Desk Operator","gender":"Female","birthdate":"5/11/1988","address":"003 Duke Alley","city":"Shikeng","zip_code":null,"emergency_contact_name":"Hildegaard Shipley","emergency_contact_phone":"592-146-9951","picture":"http://dummyimage.com/235x100.png/dddddd/000000"},
{"employee_id":13,"first_name":"Arluene","last_name":"Ipgrave","email":"aipgravec@angelfire.com","phone_number":"246-438-6615","hire_date":"8/14/2022","termination_date":"1/11/2023","job_title":"Civil Engineer","gender":"Female","birthdate":"11/30/1965","address":"45 Mandrake Way","city":"Berëzovyy","zip_code":"682738","emergency_contact_name":"Arluene Ipgrave","emergency_contact_phone":"206-549-9946","picture":"http://dummyimage.com/206x100.png/ff4444/ffffff"},
{"employee_id":14,"first_name":"Kipp","last_name":"Lehmann","email":"klehmannd@live.com","phone_number":"730-185-4161","hire_date":"12/29/2022","termination_date":"7/11/2022","job_title":"Financial Analyst","gender":"Male","birthdate":"9/8/2001","address":"3670 Novick Place","city":"Granada","zip_code":null,"emergency_contact_name":"Kipp Lehmann","emergency_contact_phone":"428-378-4798","picture":"http://dummyimage.com/245x100.png/dddddd/000000"},
{"employee_id":15,"first_name":"Kirbee","last_name":"Mole","email":"kmolee@diigo.com","phone_number":"937-702-2907","hire_date":"7/6/2022","termination_date":"6/30/2022","job_title":"Structural Engineer","gender":"Female","birthdate":"2/13/1986","address":"42167 Washington Drive","city":"Aldeia do Bispo","zip_code":"6090-075","emergency_contact_name":"Kirbee Mole","emergency_contact_phone":"226-937-0659","picture":"http://dummyimage.com/108x100.png/5fa2dd/ffffff"},
{"employee_id":16,"first_name":"Burl","last_name":"Josephsen","email":"bjosephsenf@businessinsider.com","phone_number":"469-210-7073","hire_date":"8/26/2022","termination_date":"2/16/2023","job_title":"Business Systems Development Analyst","gender":"Male","birthdate":"9/13/1972","address":"7 Cody Way","city":"Ciseuseupan","zip_code":null,"emergency_contact_name":"Burl Josephsen","emergency_contact_phone":"945-164-1271","picture":"http://dummyimage.com/221x100.png/5fa2dd/ffffff"},
{"employee_id":17,"first_name":"Joseito","last_name":"Pledge","email":"jpledgeg@paypal.com","phone_number":"308-890-3190","hire_date":"5/22/2023","termination_date":"11/21/2022","job_title":"Human Resources Manager","gender":"Male","birthdate":"8/12/1982","address":"5 Oxford Street","city":"Hausjärvi","zip_code":"12210","emergency_contact_name":"Joseito Pledge","emergency_contact_phone":"412-841-3520","picture":"http://dummyimage.com/104x100.png/5fa2dd/ffffff"},
{"employee_id":18,"first_name":"Caryl","last_name":"Gianninotti","email":"cgianninottih@privacy.gov.au","phone_number":"684-159-7883","hire_date":"1/28/2023","termination_date":"9/1/2022","job_title":"Sales Associate","gender":"Female","birthdate":"1/30/1975","address":"743 Memorial Junction","city":"Inhumas","zip_code":"75400-000","emergency_contact_name":"Caryl Gianninotti","emergency_contact_phone":"286-340-5938","picture":"http://dummyimage.com/109x100.png/dddddd/000000"},
{"employee_id":19,"first_name":"Polly","last_name":"Morad","email":"pmoradi@google.co.uk","phone_number":"530-155-1595","hire_date":"4/27/2023","termination_date":"10/11/2022","job_title":"Account Executive","gender":"Female","birthdate":"2/24/1984","address":"933 Arkansas Parkway","city":"Batobato","zip_code":"1091","emergency_contact_name":"Polly Morad","emergency_contact_phone":"280-599-7224","picture":"http://dummyimage.com/174x100.png/5fa2dd/ffffff"},
{"employee_id":20,"first_name":"Dex","last_name":"Spencley","email":"dspencleyj@theguardian.com","phone_number":"955-990-3788","hire_date":"8/7/2022","termination_date":"1/4/2023","job_title":"Legal Assistant","gender":"Male","birthdate":"6/1/1997","address":"8570 Leroy Park","city":"Mariposa","zip_code":null,"emergency_contact_name":"Dex Spencley","emergency_contact_phone":"654-454-6998","picture":"http://dummyimage.com/137x100.png/cc0000/ffffff"}]